%YAML 1.1
%TAG !u! tag:unity3d.com,2011:
--- !u!1001 &1196155566500004090
PrefabInstance:
  m_ObjectHideFlags: 0
  serializedVersion: 2
  m_Modification:
    serializedVersion: 3
    m_TransformParent: {fileID: 0}
    m_Modifications:
    - target: {fileID: 3908886388832127597, guid: 0696064751b6c9a47917876b9d18ab69, type: 3}
      propertyPath: m_Name
      value: Enemy_3
      objectReference: {fileID: 0}
    - target: {fileID: 7379894186179169781, guid: 0696064751b6c9a47917876b9d18ab69, type: 3}
      propertyPath: m_Pivot.x
      value: 0.5
      objectReference: {fileID: 0}
    - target: {fileID: 7379894186179169781, guid: 0696064751b6c9a47917876b9d18ab69, type: 3}
      propertyPath: m_Pivot.y
      value: 0.5
      objectReference: {fileID: 0}
    - target: {fileID: 7379894186179169781, guid: 0696064751b6c9a47917876b9d18ab69, type: 3}
      propertyPath: m_AnchorMax.x
      value: 0.5
      objectReference: {fileID: 0}
    - target: {fileID: 7379894186179169781, guid: 0696064751b6c9a47917876b9d18ab69, type: 3}
      propertyPath: m_AnchorMax.y
      value: 0.5
      objectReference: {fileID: 0}
    - target: {fileID: 7379894186179169781, guid: 0696064751b6c9a47917876b9d18ab69, type: 3}
      propertyPath: m_AnchorMin.x
      value: 0.5
      objectReference: {fileID: 0}
    - target: {fileID: 7379894186179169781, guid: 0696064751b6c9a47917876b9d18ab69, type: 3}
      propertyPath: m_AnchorMin.y
      value: 0.5
      objectReference: {fileID: 0}
    - target: {fileID: 7379894186179169781, guid: 0696064751b6c9a47917876b9d18ab69, type: 3}
      propertyPath: m_SizeDelta.x
      value: 100
      objectReference: {fileID: 0}
    - target: {fileID: 7379894186179169781, guid: 0696064751b6c9a47917876b9d18ab69, type: 3}
      propertyPath: m_SizeDelta.y
      value: 100
      objectReference: {fileID: 0}
    - target: {fileID: 7379894186179169781, guid: 0696064751b6c9a47917876b9d18ab69, type: 3}
      propertyPath: m_LocalPosition.x
      value: 0
      objectReference: {fileID: 0}
    - target: {fileID: 7379894186179169781, guid: 0696064751b6c9a47917876b9d18ab69, type: 3}
      propertyPath: m_LocalPosition.y
      value: 0
      objectReference: {fileID: 0}
    - target: {fileID: 7379894186179169781, guid: 0696064751b6c9a47917876b9d18ab69, type: 3}
      propertyPath: m_LocalPosition.z
      value: 0
      objectReference: {fileID: 0}
    - target: {fileID: 7379894186179169781, guid: 0696064751b6c9a47917876b9d18ab69, type: 3}
      propertyPath: m_LocalRotation.w
      value: 1
      objectReference: {fileID: 0}
    - target: {fileID: 7379894186179169781, guid: 0696064751b6c9a47917876b9d18ab69, type: 3}
      propertyPath: m_LocalRotation.x
      value: 0
      objectReference: {fileID: 0}
    - target: {fileID: 7379894186179169781, guid: 0696064751b6c9a47917876b9d18ab69, type: 3}
      propertyPath: m_LocalRotation.y
      value: 0
      objectReference: {fileID: 0}
    - target: {fileID: 7379894186179169781, guid: 0696064751b6c9a47917876b9d18ab69, type: 3}
      propertyPath: m_LocalRotation.z
      value: 0
      objectReference: {fileID: 0}
    - target: {fileID: 7379894186179169781, guid: 0696064751b6c9a47917876b9d18ab69, type: 3}
      propertyPath: m_AnchoredPosition.x
      value: 0
      objectReference: {fileID: 0}
    - target: {fileID: 7379894186179169781, guid: 0696064751b6c9a47917876b9d18ab69, type: 3}
      propertyPath: m_AnchoredPosition.y
      value: 0
      objectReference: {fileID: 0}
    - target: {fileID: 7379894186179169781, guid: 0696064751b6c9a47917876b9d18ab69, type: 3}
      propertyPath: m_LocalEulerAnglesHint.x
      value: 0
      objectReference: {fileID: 0}
    - target: {fileID: 7379894186179169781, guid: 0696064751b6c9a47917876b9d18ab69, type: 3}
      propertyPath: m_LocalEulerAnglesHint.y
      value: 0
      objectReference: {fileID: 0}
    - target: {fileID: 7379894186179169781, guid: 0696064751b6c9a47917876b9d18ab69, type: 3}
      propertyPath: m_LocalEulerAnglesHint.z
      value: 0
      objectReference: {fileID: 0}
    - target: {fileID: 8322945600033608645, guid: 0696064751b6c9a47917876b9d18ab69, type: 3}
      propertyPath: m_Color.b
      value: 0.37254906
      objectReference: {fileID: 0}
    - target: {fileID: 8322945600033608645, guid: 0696064751b6c9a47917876b9d18ab69, type: 3}
      propertyPath: m_Color.g
      value: 1
      objectReference: {fileID: 0}
    - target: {fileID: 8322945600033608645, guid: 0696064751b6c9a47917876b9d18ab69, type: 3}
      propertyPath: m_Color.r
      value: 0.4065932
      objectReference: {fileID: 0}
    m_RemovedComponents: []
    m_RemovedGameObjects: []
    m_AddedGameObjects: []
    m_AddedComponents: []
  m_SourcePrefab: {fileID: 100100000, guid: 0696064751b6c9a47917876b9d18ab69, type: 3}
